    ___              _    _____            __                          _        __
   /   |    ____    (_)  / ___/  ____ _   / / _   __  ____ _ _   __   (_)  ____/ /  ____ _   _____
  / /| |   / __ \  / /   \__ \  / __ `/  / / | | / / / __ `/| | / /  / /  / __  /  / __ `/  / ___/
 / ___ |  / /_/ / / /   ___/ / / /_/ /  / /  | |/ / / /_/ / | |/ /  / /  / /_/ /  / /_/ /  (__  )
/_/  |_| / .___/ /_/   /____/  \__,_/  /_/   |___/  \__,_/  |___/  /_/   \__,_/   \__,_/  /____/
        /_/